﻿[2016-05-28 15:16:24]: java.net.ConnectException: Connection refused: connect
[2016-05-28 15:20:14]: java.net.UnknownHostException: asdsad
[2016-05-28 15:20:22]: java.net.UnknownHostException: asdsad
[2016-05-28 15:20:23]: java.net.UnknownHostException: asdsad
[2016-05-28 15:21:00]: java.net.ConnectException: Connection refused: connect
[2016-05-28 15:21:03]: java.net.ConnectException: Connection refused: connect
[2016-05-28 15:21:06]: java.net.ConnectException: Connection refused: connect
[2016-05-28 15:21:08]: java.net.ConnectException: Connection refused: connect
[2016-05-28 15:21:09]: java.net.ConnectException: Connection refused: connect
[2016-05-28 15:21:11]: java.net.ConnectException: Connection refused: connect
[2016-05-28 15:21:12]: java.net.ConnectException: Connection refused: connect
[2016-05-28 15:32:39]: java.net.UnknownHostException: asdas
[2016-05-28 15:32:40]: java.net.UnknownHostException: asdas
[2016-05-28 15:32:46]: java.net.UnknownHostException: niedziala
[2016-05-28 15:32:49]: java.net.SocketException: Network is unreachable: connect
[2016-05-28 15:33:27]: java.net.ConnectException: Connection timed out: connect
[2016-05-28 15:33:50]: java.net.ConnectException: Connection timed out: connect
[2016-05-28 15:36:41]: java.net.SocketException: Connection reset
[2016-05-28 15:36:42]: java.net.ConnectException: Connection refused: connect
[2016-05-28 15:36:43]: java.net.ConnectException: Connection refused: connect
[2016-05-28 15:36:44]: java.net.ConnectException: Connection refused: connect
[2016-05-28 15:36:45]: java.net.ConnectException: Connection refused: connect
[2016-05-28 15:36:46]: java.net.ConnectException: Connection refused: connect
[2016-05-28 15:36:47]: java.net.ConnectException: Connection refused: connect
[2016-05-28 15:36:48]: java.net.ConnectException: Connection refused: connect
[2016-05-28 15:36:49]: java.net.ConnectException: Connection refused: connect
[2016-05-28 15:36:50]: java.net.ConnectException: Connection refused: connect
[2016-05-28 15:36:51]: java.net.ConnectException: Connection refused: connect
[2016-05-28 15:39:56]: java.net.ConnectException: Connection refused: connect
[2016-05-28 15:39:57]: java.net.ConnectException: Connection refused: connect
[2016-05-28 15:39:58]: java.net.ConnectException: Connection refused: connect
[2016-05-28 15:39:59]: java.net.ConnectException: Connection refused: connect
[2016-05-28 15:40:00]: java.net.ConnectException: Connection refused: connect
[2016-05-28 15:40:01]: java.net.ConnectException: Connection refused: connect
[2016-05-28 15:40:02]: java.net.ConnectException: Connection refused: connect
[2016-05-28 15:40:03]: java.net.ConnectException: Connection refused: connect
[2016-05-28 15:40:04]: java.net.ConnectException: Connection refused: connect
[2016-05-28 15:40:05]: java.net.ConnectException: Connection refused: connect
[2016-05-28 15:40:06]: java.net.ConnectException: Connection refused: connect
[2016-05-28 15:40:07]: java.net.ConnectException: Connection refused: connect
[2016-05-28 15:40:08]: java.net.ConnectException: Connection refused: connect
[2016-05-28 15:40:09]: java.net.ConnectException: Connection refused: connect
[2016-05-28 15:40:10]: java.net.ConnectException: Connection refused: connect
[2016-05-28 15:40:11]: java.net.ConnectException: Connection refused: connect
[2016-05-28 15:40:12]: java.net.ConnectException: Connection refused: connect
[2016-05-28 15:40:13]: java.net.ConnectException: Connection refused: connect
[2016-05-28 15:40:14]: java.net.ConnectException: Connection refused: connect
[2016-05-28 15:40:15]: java.net.ConnectException: Connection refused: connect
[2016-05-28 15:40:16]: java.net.ConnectException: Connection refused: connect
[2016-05-28 15:40:17]: java.net.ConnectException: Connection refused: connect
[2016-05-28 15:40:18]: java.net.ConnectException: Connection refused: connect
[2016-05-28 15:40:19]: java.net.ConnectException: Connection refused: connect
[2016-05-28 15:40:20]: java.net.ConnectException: Connection refused: connect
[2016-05-28 15:40:21]: java.net.ConnectException: Connection refused: connect
[2016-05-28 15:40:22]: java.net.ConnectException: Connection refused: connect
[2016-05-28 15:40:23]: java.net.ConnectException: Connection refused: connect
[2016-05-28 15:40:24]: java.net.ConnectException: Connection refused: connect
[2016-05-28 15:40:25]: java.net.ConnectException: Connection refused: connect
[2016-05-28 15:40:26]: java.net.ConnectException: Connection refused: connect
[2016-05-28 15:40:27]: java.net.ConnectException: Connection refused: connect
[2016-05-28 15:40:28]: java.net.ConnectException: Connection refused: connect
[2016-05-28 15:40:29]: java.net.ConnectException: Connection refused: connect
[2016-05-28 15:40:30]: java.net.ConnectException: Connection refused: connect
[2016-05-28 15:40:31]: java.net.ConnectException: Connection refused: connect
[2016-05-28 15:40:32]: java.net.ConnectException: Connection refused: connect
[2016-05-28 15:40:33]: java.net.ConnectException: Connection refused: connect
[2016-05-28 15:40:34]: java.net.ConnectException: Connection refused: connect
[2016-05-28 15:40:35]: java.net.ConnectException: Connection refused: connect
[2016-05-28 15:40:37]: java.net.ConnectException: Connection refused: connect
[2016-05-28 15:40:38]: java.net.ConnectException: Connection refused: connect
[2016-05-28 15:40:39]: java.net.ConnectException: Connection refused: connect
[2016-05-28 15:40:40]: java.net.ConnectException: Connection refused: connect
[2016-05-28 15:40:41]: java.net.ConnectException: Connection refused: connect
[2016-05-28 15:41:37]: java.net.ConnectException: Connection refused: connect
[2016-05-28 15:43:25]: java.net.ConnectException: Connection refused: connect
[2016-05-28 15:43:26]: java.net.ConnectException: Connection refused: connect
[2016-05-28 15:43:27]: java.net.ConnectException: Connection refused: connect
[2016-05-28 15:43:28]: java.net.ConnectException: Connection refused: connect
[2016-05-28 15:43:29]: java.net.ConnectException: Connection refused: connect
[2016-05-28 15:43:30]: java.net.ConnectException: Connection refused: connect
[2016-05-28 15:43:31]: java.net.ConnectException: Connection refused: connect
[2016-05-28 15:43:32]: java.net.ConnectException: Connection refused: connect
[2016-05-28 15:43:33]: java.net.ConnectException: Connection refused: connect
[2016-05-28 15:44:16]: java.net.ConnectException: Connection refused: connect
[2016-05-28 15:44:18]: java.net.ConnectException: Connection refused: connect
[2016-05-28 15:47:17]: java.net.SocketException: Connection reset
[2016-05-28 15:47:18]: java.net.ConnectException: Connection refused: connect
[2016-05-28 15:48:51]: java.net.ConnectException: Connection refused: connect
[2016-05-28 15:48:52]: java.net.ConnectException: Connection refused: connect
[2016-05-28 15:48:53]: java.net.ConnectException: Connection refused: connect
[2016-05-28 15:48:54]: java.net.ConnectException: Connection refused: connect
[2016-05-28 15:48:55]: java.net.ConnectException: Connection refused: connect
[2016-05-28 15:48:56]: java.net.ConnectException: Connection refused: connect
[2016-05-28 15:48:57]: java.net.ConnectException: Connection refused: connect
[2016-05-28 15:48:58]: java.net.ConnectException: Connection refused: connect
[2016-05-28 15:48:59]: java.net.ConnectException: Connection refused: connect
[2016-05-28 15:49:41]: java.net.ConnectException: Connection refused: connect
[2016-05-28 15:49:42]: java.net.ConnectException: Connection refused: connect
[2016-05-28 15:49:43]: java.net.ConnectException: Connection refused: connect
[2016-05-28 15:49:44]: java.net.ConnectException: Connection refused: connect
[2016-05-28 15:49:45]: java.net.ConnectException: Connection refused: connect
[2016-05-28 15:49:46]: java.net.ConnectException: Connection refused: connect
[2016-05-28 15:49:47]: java.net.ConnectException: Connection refused: connect
[2016-05-28 15:49:48]: java.net.ConnectException: Connection refused: connect
[2016-05-28 15:49:49]: java.net.ConnectException: Connection refused: connect
[2016-05-28 15:49:50]: java.net.ConnectException: Connection refused: connect
[2016-05-28 15:49:51]: java.net.ConnectException: Connection refused: connect
[2016-05-28 15:49:52]: java.net.ConnectException: Connection refused: connect
[2016-05-28 15:49:53]: java.net.ConnectException: Connection refused: connect
[2016-05-28 15:49:54]: java.net.ConnectException: Connection refused: connect
[2016-05-28 15:49:55]: java.net.ConnectException: Connection refused: connect
[2016-05-28 15:49:56]: java.net.ConnectException: Connection refused: connect
[2016-05-28 15:49:57]: java.net.ConnectException: Connection refused: connect
[2016-05-28 15:49:58]: java.net.ConnectException: Connection refused: connect
[2016-05-28 15:49:59]: java.net.ConnectException: Connection refused: connect
[2016-05-28 15:50:00]: java.net.ConnectException: Connection refused: connect
[2016-05-28 15:50:01]: java.net.ConnectException: Connection refused: connect
[2016-05-28 15:50:02]: java.net.ConnectException: Connection refused: connect
[2016-05-28 15:51:52]: java.net.ConnectException: Connection refused: connect
[2016-05-28 15:51:53]: java.net.ConnectException: Connection refused: connect
[2016-05-28 15:52:41]: java.net.ConnectException: Connection refused: connect
[2016-05-28 15:52:42]: java.net.ConnectException: Connection refused: connect
[2016-05-28 15:52:43]: java.net.ConnectException: Connection refused: connect
[2016-05-28 15:52:44]: java.net.ConnectException: Connection refused: connect
[2016-05-28 15:52:45]: java.net.ConnectException: Connection refused: connect
[2016-05-28 15:52:46]: java.net.ConnectException: Connection refused: connect
[2016-05-28 15:52:47]: java.net.ConnectException: Connection refused: connect
[2016-05-28 15:52:48]: java.net.ConnectException: Connection refused: connect
[2016-05-28 15:52:49]: java.net.ConnectException: Connection refused: connect
[2016-05-28 15:55:43]: java.net.SocketException: Connection reset
[2016-05-28 15:55:44]: java.net.ConnectException: Connection refused: connect
[2016-05-28 15:55:45]: java.net.ConnectException: Connection refused: connect
[2016-05-28 15:55:46]: java.net.ConnectException: Connection refused: connect
[2016-05-28 15:55:47]: java.net.ConnectException: Connection refused: connect
[2016-05-28 15:55:48]: java.net.ConnectException: Connection refused: connect
[2016-05-28 15:55:49]: java.net.ConnectException: Connection refused: connect
[2016-05-28 15:55:50]: java.net.ConnectException: Connection refused: connect
[2016-05-28 15:55:51]: java.net.ConnectException: Connection refused: connect
[2016-05-28 15:55:52]: java.net.ConnectException: Connection refused: connect
[2016-05-28 15:57:26]: java.net.ConnectException: Connection refused: connect
[2016-05-28 15:58:44]: java.net.SocketException: Connection reset, Przerwano polaczenie z serwerem!
[2016-05-28 16:02:34]: java.net.ConnectException: Connection refused: connect, Przerwano polaczenie z serwerem!
[2016-05-29 19:22:55]: java.net.ConnectException: Connection refused: connect
[2016-05-29 19:22:57]: java.net.ConnectException: Connection refused: connect
[2016-05-29 19:22:58]: java.net.ConnectException: Connection refused: connect, Przerwano polaczenie z serwerem!
[2016-06-01 20:14:23]: java.net.ConnectException: Connection refused: connect
[2016-06-05 22:51:39]: java.net.ConnectException: Connection refused: connect
[2016-06-07 12:34:30]: java.net.ConnectException: Connection refused: connect
[2016-06-07 12:34:33]: java.net.ConnectException: Connection refused: connect
[2016-06-07 12:34:37]: java.net.ConnectException: Connection refused: connect
[2016-06-07 12:34:39]: java.net.ConnectException: Connection refused: connect
[2016-06-07 12:34:40]: java.net.ConnectException: Connection refused: connect, Przerwano polaczenie z serwerem!
